אוהלו,תבור 98
אלומות,תבור 98
אפיקים,תבור 98
אשדות יעקב איחוד,תבור 98
אשדות יעקב מאוחד,תבור 98
בית זרע,תבור 98
בית ירח,תבור 98
גבעת אבני,תבור 98
דגניה א',תבור 98
דגניה ב',תבור 98
הודיות ,תבור 98
הזורעים,תבור 98
יבנאל,תבור 98
כינרת מושבה,תבור 98
כינרת קבוצה,תבור 98
כפר כמא,תבור 98
כפר נהר הירדן,תבור 98
לביא,תבור 98
מנחמיה,תבור 98
פוריה כפר עבודה,תבור 98
פוריה נווה עובד,תבור 98
פוריה עילית,תבור 98
שדה אילן,תבור 98
שרונה,תבור 98
אילניה,תבור 96
בית קשת,תבור 96
גזית,תבור 96
דבוריה,תבור 96
טורעאן,תבור 96
כדורי,תבור 96
כפר מיסר,תבור 96
כפר קיש,תבור 96
כפר תבור,תבור 96
עין דור,תבור 96
שבלי,תבור 96
שדמות דבורה,תבור 96
שעורים,תבור 96
אכסאל,תבור 95
בלפוריה,תבור 95
הושעיה,תבור 95
הסוללים,תבור 95
יפיע,תבור 95
כפר גדעון,תבור 95
כפר החורש,תבור 95
כפר כנא,תבור 95
מזרע,תבור 95
משהד,תבור 95
נצרת,תבור 95
נצרת עילית,תבור 95
עין מאהל,תבור 95
ערב אל פמאז,תבור 95
ציפורי,תבור 95
ריינה,תבור 95
תל עדשים,תבור 95
אורנית,שרון 143
אלישמע,שרון 143
ג'לג'וליה,שרון 143
גני עם,שרון 143
הוד השרון,שרון 143
חבלה,שרון 143
חגור,שרון 143
חורשים,שרון 143
ירחיב,שרון 143
ירקונה,שרון 143
כפר ברא,שרון 143
כפר מל''ל,שרון 143
כפר קאסם,שרון 143
מתן,שרון 143
נווה ירק,שרון 143
נירית,שרון 143
עדנים,שרון 143
רמות השבים,שרון 143
שדי חמד,שרון 143
אבן יהודה,שרון 142
אודים,שרון 142
ארסוף,שרון 142
בית יהושע,שרון 142
בני ציון,שרון 142
בצרה,שרון 142
געש,שרון 142
ורדים מוסד חינוכי,שרון 142
חרוצים,שרון 142
יקום,שרון 142
כפר נטר,שרון 142
קרית שלמה,שרון 142
שפיים,שרון 142
תל יצחק,שרון 142
גן חיים,שרון 141
כפר סבא,שרון 141
נווה ימין,שרון 141
צופית,שרון 141
גבעת ח''ן,שרון 140
רעננה,שרון 140
רשפון,שרון 140
אביחיל,שרון 138
בית יצחק שער חפר,שרון 138
ביתן אהרן,שרון 138
בת חן,שרון 138
גבעת שפירא,שרון 138
גנות הדר,שרון 138
הדר עם,שרון 138
חבצלת השרון,שרון 138
כפר חיים,שרון 138
כפר ידידיה,שרון 138
מעברות,שרון 138
משמר השרון,שרון 138
נורדיה,שרון 138
נתניה,שרון 138
צוקי ים,שרון 138
שושנת העמקים,שרון 138
בית חרות,שרון 137
בית ינאי,שרון 137
גאולי תימן,שרון 137
חופית,שרון 137
כפר ויתקין,שרון 137
מבואות ים,שרון 137
מכמורת,שרון 137
נעורים,שרון 137
בית חשמונאי,שפלה 184
בית עוזיאל,שפלה 184
גזר,שפלה 184
גני הדר,שפלה 184
גני יוחנן,שפלה 184
חולדה,שפלה 184
יד רמב''ם,שפלה 184
יסודות,שפלה 184
יציץ,שפלה 184
כפר ביל''ו,שפלה 184
כפר בן נון,שפלה 184
כפר שמואל,שפלה 184
כרמי יוסף,שפלה 184
מזכרת בתיה,שפלה 184
מרכז קניות ביל''ו,שפלה 184
משמר איילון,שפלה 184
משמר דוד,שפלה 184
נען,שפלה 184
נצר חזני,שפלה 184
סתריה,שפלה 184
עזריה,שפלה 184
פדיה,שפלה 184
פתחיה,שפלה 184
קרית עקרון,שפלה 184
רמות מאיר,שפלה 184
בית חנן,שפלה 183
בית עובד,שפלה 183
נס ציונה,שפלה 183
עיינות,שפלה 183
אירוס,שפלה 182
גבעת ברנר,שפלה 182
גיבתון,שפלה 182
גן שלמה,שפלה 182
נצר סרני,שפלה 182
רחובות,שפלה 182
בודרוס,שפלה 181
גמזו,שפלה 181
חשמונאים,שפלה 181
כפר דניאל,שפלה 181
כפר הארנים,שפלה 181
כפר רות,שפלה 181
לפיד,שפלה 181
מבוא חורון,שפלה 181
מבוא מודיעים,שפלה 181
מודיעין מכבים רעות,שפלה 181
מודיעין עילית,שפלה 181
מידיה,שפלה 181
מתתיהו,שפלה 181
נוף איילון,שפלה 181
ניעלין,שפלה 181
שילת,שפלה 181
שעלבים,שפלה 181
אחיסמך,שפלה 179
בן שמן,שפלה 179
בן שמן כפר נוער,שפלה 179
גינתון,שפלה 179
כרם בן שמן,שפלה 179
לוד,שפלה 179
ניר צבי,שפלה 179
באר יעקב,שפלה 178
ישרש,שפלה 178
מצליח,שפלה 178
צריפין,שפלה 178
רמלה,שפלה 178
גן שורק,שפלה 175
נטעים,שפלה 175
פלמחים,שפלה 175
ראשון לציון,שפלה 175
אחיעזר,שפלה 174
בית דגן,שפלה 174
גנות,שפלה 174
זיתן,שפלה 174
חמד,שפלה 174
יגל,שפלה 174
כפר חב''ד,שפלה 174
כפר טרומן,שפלה 174
משמר השבעה,שפלה 174
צפריה,שפלה 174
בית נחמיה,שפלה 173
בית עריף,שפלה 173
ברקת,שפלה 173
חדיד,שפלה 173
טירת יהודה,שפלה 173
מרכז שוהם,שפלה 173
שוהם,שפלה 173
נמל תעופה בן גוריון,שפלה 172
מחנה נחשונים,שפלה 171
עינת,שפלה 170
ראש העין,שפלה 170
אלעד,שפלה 169
בארות יצחק,שפלה 169
בני עטרות,שפלה 169
גבעת כ''ח,שפלה 169
מגשימים,שפלה 169
מזור,שפלה 169
נופך,שפלה 169
נחלים,שפלה 169
נחשונים,שפלה 169
רינתיה,שפלה 169
גבעת השלושה,שפלה 168
גת רימון,שפלה 168
כפר סירקין,שפלה 168
פתח תקווה,שפלה 168
תעשיון השרון,שפלה 168
שם ישוב,שם חדש
בית איג'זא,שומרון 127
ג'ודירה,שומרון 127
ג'יב,שומרון 127
גבעון החדשה,שומרון 127
גבעת זאב,שומרון 127
נבי סמואל,שומרון 127
א ראם,שומרון 126
אבו קש,שומרון 126
אבו שח'ידם,שומרון 126
אל בירה,שומרון 126
בורקה,שומרון 126
בילעין,שומרון 126
ביר זית,שומרון 126
בית איענאן,שומרון 126
בית אל,שומרון 126
בית דוקו,שומרון 126
בית חורון,שומרון 126
בית ליקיא,שומרון 126
בית סירא,שומרון 126
בית ע'ור א תחתא,שומרון 126
בית ע'ור אל פוקא,שומרון 126
ביתוניא,שומרון 126
ביתילו,שומרון 126
ביתין,שומרון 126
ג'אניה,שומרון 126
ג'בע מצפון לירושלים,שומרון 126
ג'לזון,שומרון 126
ג'מאלא,שומרון 126
ג'פנא,שומרון 126
גבעת אסף,שומרון 126
דולב,שומרון 126
דורא אל קריע,שומרון 126
דיר איבזיע,שומרון 126
דיר עמאר,שומרון 126
דיר קדיס,שומרון 126
ח'ירבת א טירה,שומרון 126
ח'ירבת אל מיסבאח,שומרון 126
ח'ירבתא,שומרון 126
טירה ליד בית חורון,שומרון 126
טלמון,שומרון 126
יברוד,שומרון 126
כוכב יעקב,שומרון 126
כפר ניעמה,שומרון 126
כפר עקב,שומרון 126
מזרעה אל קיבליה,שומרון 126
נחליאל,שומרון 126
ניל''י,שומרון 126
נעלה,שומרון 126
סורדה,שומרון 126
ספא,שומרון 126
עין איוב,שומרון 126
עין יברוד,שומרון 126
עין סיניא,שומרון 126
עין עריכ,שומרון 126
עין קיניא,שומרון 126
פסגות,שומרון 126
קיביא,שומרון 126
קלנדיה,שומרון 126
ראס כרכר,שומרון 126
ראפאת ליד גבעת זאב,שומרון 126
רמאללה,שומרון 126
שבתין,שומרון 126
שוקבא,שומרון 126
אזור תעשייה שער בנימין,שומרון 125
ג'אלוד,שומרון 125
ג'וריש,שומרון 125
דיר ג'ריר,שומרון 125
דיר דיבוואן,שומרון 125
ח'ירבת אבו פלאח,שומרון 125
טייבה ליד עפרה,שומרון 125
יתמא,שומרון 125
כפר מאליכ,שומרון 125
מגדלים,שומרון 125
מוח'מאס,שומרון 125
מזרעה א שרקיה,שומרון 125
סילואד,שומרון 125
עלי,שומרון 125
עפרה,שומרון 125
קבלאן,שומרון 125
קוסרה,שומרון 125
קריות,שומרון 125
רחלים,שומרון 125
רמון,שומרון 125
שבות רחל,שומרון 125
שילה,שומרון 125
תורמוס עייא,שומרון 125
תלפית במרכז השומרון,שומרון 125
אום ספא,שומרון 124
איסכאכא,שומרון 124
בורהאם,שומרון 124
בורוקין,שומרון 124
בית רימא,שומרון 124
ג'יביא,שומרון 124
ג'ילג'יליא,שומרון 124
דיר א סודאן,שומרון 124
דיר אבו משעל,שומרון 124
דיר ניזאם,שומרון 124
דיר ע'סאנה,שומרון 124
ח'ירבת קיס,שומרון 124
חלמיש,שומרון 124
יאסוף,שומרון 124
כובר,שומרון 124
כפר א דיכ,שומרון 124
כפר עין,שומרון 124
כפר תפוח,שומרון 124
לובאן שרקיה,שומרון 124
מזאריע א נובאני,שומרון 124
מעלה לבונה,שומרון 124
נבי סאלח,שומרון 124
סאוויה,שומרון 124
סינג'יל,שומרון 124
עאבוד,שומרון 124
עבווין,שומרון 124
עג'ול,שומרון 124
עטארה ליד ביר זית,שומרון 124
עטרת,שומרון 124
עמוריה,שומרון 124
ערורה,שומרון 124
קראות בני זיד,שומרון 124
א לובאן,שומרון 123
בית אריה,שומרון 123
ברוכין,שומרון 123
דיר בלוט,שומרון 123
זאוויה,שומרון 123
עופרים,שומרון 123
עלי זהב,שומרון 123
פדואל,שומרון 123
ראפאת ליד פדואל,שומרון 123
רנתיס,שומרון 123
אריאל,שומרון 122
ברקן,שומרון 122
חארס,שומרון 122
כיפל חארת,שומרון 122
מרדה,שומרון 122
סלפית,שומרון 122
עין אל מטווי,שומרון 122
פרח'ה,שומרון 122
קירה,שומרון 122
קרית נטפים,שומרון 122
רבבה,שומרון 122
א שייח' אחמד,שומרון 121
אבו סלמאן,שומרון 121
אל מודוור,שומרון 121
אלפי מנשה,שומרון 121
אלקנה,שומרון 121
בידיה,שומרון 121
בית אמין,שומרון 121
ג'ינסאפוט,שומרון 121
דיר איסתיא,שומרון 121
ח'ירבת א נבי אליאס,שומרון 121
ח'ירבת אל אשקר,שומרון 121
ח'ירבת עסלה,שומרון 121
ח'ירבת ראס א טירה,שומרון 121
ח'ירבת ראס עטיה,שומרון 121
יקיר,שומרון 121
כפר לאקף,שומרון 121
כפר ת'ולת,שומרון 121
מסחה,שומרון 121
מעלה שומרון,שומרון 121
נופים,שומרון 121
סניריא,שומרון 121
סרטא,שומרון 121
עזון,שומרון 121
עזון עתמה,שומרון 121
עמנואל,שומרון 121
עץ אפרים,שומרון 121
צופין,שומרון 121
קלקיליה,שומרון 121
קראות בני חסן,שומרון 121
קרני שומרון,שומרון 121
שערי תקווה,שומרון 121
א ראס,שומרון 120
אבני חפץ,שומרון 120
אודלה,שומרון 120
אימאתין,שומרון 120
איתמר,שומרון 120
אל פונדוק,שומרון 120
אלון מורה,שומרון 120
באקה,שומרון 120
בורין,שומרון 120
בית א אל פוקא,שומרון 120
בית איבא,שומרון 120
בית דג'ן,שומרון 120
בית וזן,שומרון 120
בית ליד,שומרון 120
בית פוריכ,שומרון 120
ביתא א תחתא,שומרון 120
בלאטה,שומרון 120
ברכה,שומרון 120
ג'וניד,שומרון 120
ג'יוס,שומרון 120
ג'ית,שומרון 120
ג'מאעין,שומרון 120
גבעת סנה יעקב,שומרון 120
דיר אל חטב,שומרון 120
דיר שרף,שומרון 120
הר גריזים,שומרון 120
זוואתא,שומרון 120
זיתא,שומרון 120
ח'וארה,שומרון 120
ח'ירבת סיר,שומרון 120
חג'ה,שומרון 120
חוות גלעד,שומרון 120
יאנון,שומרון 120
יצהר,שומרון 120
כור,שומרון 120
כפר ג'מאל,שומרון 120
כפר זיבאד,שומרון 120
כפר סור,שומרון 120
כפר עבוש,שומרון 120
כפר קדום,שומרון 120
כפר קליל,שומרון 120
מג'דל,שומרון 120
מדמא,שומרון 120
נאקורה,שומרון 120
סאלם,שומרון 120
סבסטיה,שומרון 120
סלעית,שומרון 120
ספארין,שומרון 120
סרה,שומרון 120
עוורתא,שומרון 120
עוסארין,שומרון 120
עוריף,שומרון 120
עזמוט,שומרון 120
עין יאנון,שומרון 120
עינאבוס,שומרון 120
עיראק בורין,שומרון 120
ענב,שומרון 120
עסירה אל קיבליה,שומרון 120
עסכר,שומרון 120
עקרבה,שומרון 120
פלאמה,שומרון 120
פרעון,שומרון 120
פרעתה,שומרון 120
קדומים,שומרון 120
קוזה,שומרון 120
קוסין,שומרון 120
ראמין,שומרון 120
רוג'ייב,שומרון 120
רפידיה,שומרון 120
שבי שומרון,שומרון 120
שופה,שומרון 120
שכם,שומרון 120
תל,שומרון 120
א שהאדה,שומרון 119
אום א תות,שומרון 119
איג'ניסיניא,שומרון 119
איכתאבא,שומרון 119
אירתאח,שומרון 119
אל ג'ארושיה,שומרון 119
אל מוטילה,שומרון 119
אל מוע'ייר,שומרון 119
אקרע,שומרון 119
באקה א שרקיה,שומרון 119
בורקה ליד שכם,שומרון 119
בזאריה,שומרון 119
בית אומרין,שומרון 119
בית קאד,שומרון 119
בלעא,שומרון 119
ג'בע,שומרון 119
ג'ודידה,שומרון 119
ג'לבון,שומרון 119
ג'למה,שומרון 119
ג'לקמוס,שומרון 119
ג'נין,שומרון 119
ג'רבה,שומרון 119
דיר אבו דעיף,שומרון 119
דיר אל ע'וסון,שומרון 119
דיר ע'זאלה,שומרון 119
דנאבה,שומרון 119
ואדי א דבע,שומרון 119
זאוויה בצפון שומרון,שומרון 119
זבאבידה,שומרון 119
ח'ירבת אל עקרבאניה,שומרון 119
ח'ירבת בית חסן,שומרון 119
טובאס,שומרון 119
טול כרם,שומרון 119
טלוזה,שומרון 119
טמון,שומרון 119
יאסיד,שומרון 119
כופיר,שומרון 119
כפר א לבד,שומרון 119
כפר ראעי,שומרון 119
כפר רומאן,שומרון 119
כשדה,שומרון 119
מוח'יים פארעה,שומרון 119
מירכה,שומרון 119
מית'לון,שומרון 119
מסיליה,שומרון 119
משרוע בית קאד,שומרון 119
נור א שמס,שומרון 119
נזלה אל ווסטא,שומרון 119
נזלה אל ע'רביה,שומרון 119
נזלת אבו נאר,שומרון 119
ניסף ג'וביל,שומרון 119
סאנור,שומרון 119
סידא,שומרון 119
סילת א דהר,שומרון 119
סיר,שומרון 119
סיריס,שומרון 119
עאבה,שומרון 119
עג'ה,שומרון 119
עטארה,שומרון 119
עילאר,שומרון 119
עין אל בידא,שומרון 119
ענבתא,שומרון 119
ענזה,שומרון 119
עסירה א שמאליה,שומרון 119
עקבה בשומרון,שומרון 119
עקבת תיאסיר,שומרון 119
עראנה,שומרון 119
ערבונה,שומרון 119
עתיל,שומרון 119
פחמה,שומרון 119
פנדקומיה,שומרון 119
פקועה,שומרון 119
קבאטיה,שומרון 119
ראבא,שומרון 119
רמה,שומרון 119
שוויכה,שומרון 119
תיאסיר,שומרון 119
תלפית,שומרון 119
תנין,שומרון 119
אום א ריחאן,שומרון 118
אום דאר,שומרון 118
בורקין,שומרון 118
האשימיה,שומרון 118
זובובא,שומרון 118
זיבדה,שומרון 118
ח'ירבת א טורם,שומרון 118
ח'ירבת א טייבה,שומרון 118
חיננית,שומרון 118
חרמש,שומרון 118
טורה על ע'רביה,שומרון 118
יאמון,שומרון 118
יעבד,שומרון 118
כופיראת,שומרון 118
כפר דאן,שומרון 118
כפר קוד,שומרון 118
מבוא דותן,שומרון 118
מנשיה,שומרון 118
נזלה א שרקיה,שומרון 118
נזלת זיד,שומרון 118
סילת אל ח'רית'יה,שומרון 118
עאנין,שומרון 118
עראבה ליד ג'נין,שומרון 118
ערקה,שומרון 118
פיראסין,שומרון 118
קפין,שומרון 118
רומאנה ממזרח לאום אל פחם,שומרון 118
שקד,שומרון 118
תיעניכ,שומרון 118
תעשיון שח''ק,שומרון 118
א סלבה,קצרין 7
אניעם,קצרין 7
חד נס,קצרין 7
כנף,קצרין 7
מעלה גמלא,קצרין 7
קדמת צבי,קצרין 7
קלע,קצרין 7
קצרין,קצרין 7
שעל,קצרין 7
האון,קצרין 10
מסדה,קצרין 10
מעגן,קצרין 10
עין גב,קצרין 10
רמות,קצרין 10
שער הגולן,קצרין 10
תל קציר,קצרין 10
הילה,קו העימות 32
חוסן,קו העימות 32
כפר ורדים,קו העימות 32
מעונה,קו העימות 32
מעיליא,קו העימות 32
מעלות תרשיחא,קו העימות 32
געתון,קו העימות 31
יחיעם,קו העימות 31
מנות,קו העימות 31
נווה זיו,קו העימות 31
עבדון,קו העימות 31
עין יעקב,קו העימות 31
בן עמי,קו העימות 30
כברי,קו העימות 30
גשר הזיו,קו העימות 29
נהריה,קו העימות 29
סער,קו העימות 29
עברון,קו העימות 29
שבי ציון,קו העימות 29
דן,קו העימות 28
דפנה,קו העימות 28
הגושרים,קו העימות 28
ע'ג'ר,קו העימות 28
שאר ישוב,קו העימות 28
שניר,קו העימות 28
בית הלל,קו העימות 26
יובל,קו העימות 26
כפר גלעדי,קו העימות 26
מטולה,קו העימות 26
מנרה,קו העימות 26
מעיין ברוך,קו העימות 26
מרגליות,קו העימות 26
משגב עם,קו העימות 26
קרית שמונה,קו העימות 26
תל חי,קו העימות 26
גונן,קו העימות 25
כפר בלום,קו העימות 25
כפר סאלד,קו העימות 25
להבות הבשן,קו העימות 25
נאות מרדכי,קו העימות 25
עמיר,קו העימות 25
שדה נחמיה,קו העימות 25
שמיר,קו העימות 25
דישון,קו העימות 24
יפתח,קו העימות 24
מלכיה,קו העימות 24
מרכז כ''ח,קו העימות 24
רמות נפתלי,קו העימות 24
ג'יש,קו העימות 23
דלתון,קו העימות 23
כרם בן זמרה,קו העימות 23
עלמה,קו העימות 23
ריחאנייה,קו העימות 23
אביבים,קו העימות 22
ברעם,קו העימות 22
יראון,קו העימות 22
חורפיש,קו העימות 20
פקיעין,קו העימות 20
פקיעין חדשה,קו העימות 20
צבעון,קו העימות 20
צוריאל,קו העימות 20
דוב''ב,קו העימות 19
מתת,קו העימות 19
סאסא,קו העימות 19
אבירים,קו העימות 17
אלקוש,קו העימות 17
נטועה,קו העימות 17
פסוטה,קו העימות 17
אבן מנחם,קו העימות 16
זרעית,קו העימות 16
שומרה,קו העימות 16
שתולה,קו העימות 16
א נוואקיר,קו העימות 15
אדמית,קו העימות 15
אידמית,קו העימות 15
אילון,קו העימות 15
ג'ורדיח,קו העימות 15
גורן,קו העימות 15
גורנות הגליל,קו העימות 15
חניתה,קו העימות 15
יערה,קו העימות 15
עראמשה,קו העימות 15
בצת,קו העימות 14
כפר ראש הנקרה,קו העימות 14
לימן,קו העימות 14
מצובה,קו העימות 14
שלומי,קו העימות 14
אליפז,ערבה 310
באר אורה,ערבה 310
גרופית,ערבה 310
חצבה,ערבה 310
יהל,ערבה 310
יטבתה,ערבה 310
לוטן,ערבה 310
נאות הכיכר,ערבה 310
נאות סמדר,ערבה 310
נווה חריף,ערבה 310
סמר,ערבה 310
ספיר,ערבה 310
עידן,ערבה 310
עין חצבה,ערבה 310
עין יהב,ערבה 310
עין תמר,ערבה 310
עיר אובות,ערבה 310
פארן,ערבה 310
צופר,ערבה 310
צוקים,ערבה 310
קטורה,ערבה 310
שחרות,ערבה 310
שיטים,ערבה 308
אביטל,עמק יזרעאל 93
אדירים,עמק יזרעאל 93
אומן,עמק יזרעאל 93
ברק,עמק יזרעאל 93
גבע,עמק יזרעאל 93
גדיש,עמק יזרעאל 93
גדעונה,עמק יזרעאל 93
גן נר,עמק יזרעאל 93
דבורה,עמק יזרעאל 93
חבר,עמק יזרעאל 93
טייבה ליד מולדת,עמק יזרעאל 93
יזרעאל,עמק יזרעאל 93
יעל,עמק יזרעאל 93
כפר יחזקאל,עמק יזרעאל 93
מגן שאול,עמק יזרעאל 93
מוקייבלה,עמק יזרעאל 93
מיטב,עמק יזרעאל 93
מלאה,עמק יזרעאל 93
ניר יפה,עמק יזרעאל 93
פרזון,עמק יזרעאל 93
צנדלה,עמק יזרעאל 93
רם און,עמק יזרעאל 93
רמת צבי,עמק יזרעאל 93
תל יוסף,עמק יזרעאל 93
אחוזת ברק,עמק יזרעאל 90
דברת,עמק יזרעאל 90
דחי,עמק יזרעאל 90
טמרה יזרעאל,עמק יזרעאל 90
מפעלי גלבוע,עמק יזרעאל 90
מרחביה מושב,עמק יזרעאל 90
מרחביה קיבוץ,עמק יזרעאל 90
נאעורה,עמק יזרעאל 90
נורית,עמק יזרעאל 90
נין,עמק יזרעאל 90
סולם שונם,עמק יזרעאל 90
עין חרוד איחוד,עמק יזרעאל 90
עין חרוד מאוחד,עמק יזרעאל 90
עפולה,עמק יזרעאל 90
היוגב,עמק יזרעאל 89
כפר ברוך,עמק יזרעאל 89
אלוני אבא,עמק יזרעאל 87
בית לחם הגלילית,עמק יזרעאל 87
בית שערים,עמק יזרעאל 87
גבעת אלה,עמק יזרעאל 87
גבת,עמק יזרעאל 87
גיניגר,עמק יזרעאל 87
יפעת,עמק יזרעאל 87
כעביה טבאש חג'אג'רה,עמק יזרעאל 87
כפר יהושע,עמק יזרעאל 87
מגדל העמק,עמק יזרעאל 87
מנשית זבדה,עמק יזרעאל 87
נהלל,עמק יזרעאל 87
נווה יער,עמק יזרעאל 87
עילוט,עמק יזרעאל 87
ערב אל עיסאת,עמק יזרעאל 87
רמת דוד,עמק יזרעאל 87
רמת ישי,עמק יזרעאל 87
שדה יעקב,עמק יזרעאל 87
שמשית,עמק יזרעאל 87
שריד,עמק יזרעאל 87
תמרת,עמק יזרעאל 87
אורנים,עמק יזרעאל 86
אלונים,עמק יזרעאל 86
בית זיד,עמק יזרעאל 86
בסמת טבעון,עמק יזרעאל 86
כפר תקווה,עמק יזרעאל 86
קרית טבעון,עמק יזרעאל 86
שער העמקים,עמק יזרעאל 86
בארותיים,עמק חפר 150
בורגתה,עמק חפר 150
בית הלוי,עמק חפר 150
בת חפר,עמק חפר 150
גן יאשיה,עמק חפר 150
העוגן,עמק חפר 150
חניאל,עמק חפר 150
יד חנה,עמק חפר 150
ינוב,עמק חפר 150
כפר יונה,עמק חפר 150
כפר מונש,עמק חפר 150
ניצני עוז,עמק חפר 150
עולש,עמק חפר 150
תנובות,עמק חפר 150
אומץ,עמק חפר 149
אחיטוב,עמק חפר 149
באקה אל ע'רביה,עמק חפר 149
באקה ג'ת,עמק חפר 149
בחן,עמק חפר 149
ג'ת,עמק חפר 149
המעפיל,עמק חפר 149
זיתא ליד באקה אל ע'רביה,עמק חפר 149
זמר,עמק חפר 149
להבות חביבה,עמק חפר 149
מגל,עמק חפר 149
מייסר,עמק חפר 149
מצר,עמק חפר 149
נזלת עיסא,עמק חפר 149
אייל,עמק חפר 139
אילנות,עמק חפר 139
בית ברל,עמק חפר 139
בני דרור,עמק חפר 139
גאולים,עמק חפר 139
חרות,עמק חפר 139
טייבה,עמק חפר 139
טירה,עמק חפר 139
יעף,עמק חפר 139
כוכב יאיר,עמק חפר 139
כפר הס,עמק חפר 139
כפר יעבץ,עמק חפר 139
כפר עבודה,עמק חפר 139
משמרת,עמק חפר 139
ניר אליהו,עמק חפר 139
עזריאל,עמק חפר 139
עין ורד,עמק חפר 139
עין שריד,עמק חפר 139
פורת,עמק חפר 139
פרדסיה,עמק חפר 139
צור יגאל,עמק חפר 139
צור יצחק,עמק חפר 139
צור משה,עמק חפר 139
צור נתן,עמק חפר 139
קדימה צורן,עמק חפר 139
קלנסווה,עמק חפר 139
רמת הכובש,עמק חפר 139
שדה ורבורג,עמק חפר 139
שער אפרים,עמק חפר 139
תל מונד,עמק חפר 139
אליכין,עמק חפר 137
אלישיב,עמק חפר 137
בית חזון,עמק חפר 137
גבעת חיים איחוד,עמק חפר 137
גבעת חיים מאוחד,עמק חפר 137
חגלה,עמק חפר 137
חיבת ציון,עמק חפר 137
חרב לאת,עמק חפר 137
כפר הרא''ה,עמק חפר 137
עין החורש,עמק חפר 137
אום אל פחם,עירון 113
בסמ''ה,עירון 113
גבעת עוז,עירון 113
ח'ירבת מועאוויה,עירון 113
מי עמי,עירון 113
מעלה עירון,עירון 113
אום אל קוטוף,עירון 112
אל מועלקה,עירון 112
אל עריאן,עירון 112
ברקאי,עירון 112
ד'הר אל עבד,עירון 112
דאר אל חנון,עירון 112
ח'ירבת אל עכאבה,עירון 112
כפר קרע,עירון 112
מנסורה,עירון 112
מצפה אילן,עירון 112
ערערה,עירון 112
קציר חריש,עירון 112
ריחן,עירון 112
גברעם,עוטף עזה 251
אבשלום,עוטף עזה 238
דקל,עוטף עזה 238
יבול,עוטף עזה 238
יתד,עוטף עזה 238
פרי גן,עוטף עזה 238
שדי אברהם,עוטף עזה 238
תלמי יוסף,עוטף עזה 238
כרם שלום,עוטף עזה 237
חולית,עוטף עזה 236
ניר יצחק,עוטף עזה 236
סופה,עוטף עזה 236
ישע,עוטף עזה 234
מבטחים,עוטף עזה 234
עמיעוז,עוטף עזה 234
מגן,עוטף עזה 233
מועצה אזורית אשכול,עוטף עזה 233
מפעלי מעון,עוטף עזה 233
עין הבשור,עוטף עזה 233
ניר עוז,עוטף עזה 232
נירים,עוטף עזה 231
עין השלושה,עוטף עזה 231
כיסופים,עוטף עזה 230
רעים,עוטף עזה 228
בארי,עוטף עזה 227
זמרת,עוטף עזה 225
חוות יזרעם,עוטף עזה 225
כפר מימון,עוטף עזה 225
שובה,עוטף עזה 225
שוקדה,עוטף עזה 225
תושיה,עוטף עזה 225
תקומה,עוטף עזה 225
נחל עוז,עוטף עזה 224
עלומים,עוטף עזה 224
כפר עזה,עוטף עזה 223
סעד,עוטף עזה 223
יכיני,עוטף עזה 222
מפלסים,עוטף עזה 221
איבים,עוטף עזה 220
גבים,עוטף עזה 220
מכללת ספיר,עוטף עזה 220
ניר עם,עוטף עזה 220
שדרות,עוטף עזה 220
אור הנר,עוטף עזה 219
ארז,עוטף עזה 219
יד מרדכי,עוטף עזה 218
נתיב העשרה,עוטף עזה 218
זיקים,עוטף עזה 217
כרמיה,עוטף עזה 217
מדרשת בן גוריון,נגב 305
מצפה רמון,נגב 305
מרחב עם,נגב 305
שדה בוקר,נגב 305
שלווה במדבר,נגב 305
אשלים,נגב 302
באר מילכה,נגב 302
ביר הדאג',נגב 302
טללים,נגב 302
כמהין,נגב 302
מעלה שביט,נגב 302
משאבי שדה,נגב 302
ניצנה כפר נוער,נגב 302
ניצני סיני,נגב 302
עזוז,נגב 302
קציעות,נגב 302
ראם תשלובת חקלאית,נגב 302
רביבים,נגב 302
רוח במדבר,נגב 302
רתמים,נגב 302
שיבטה,נגב 302
אורון,נגב 301
אל מחד'י צפונית לדימונה,נגב 301
אל ע'ול צפונית לדימונה,נגב 301
אל עמראני דרום מערב לדימונה,נגב 301
דימונה,נגב 301
הוואשלה,נגב 301
ירוחם,נגב 301
קסר א סיר,נגב 301
קרנב אבו סלב,נגב 301
רח'מה,נגב 301
א דנפירי,נגב 300
אבו עפאש,נגב 300
אל ג'רג'אווי,נגב 300
אל ולידי,נגב 300
אל כלאב,נגב 300
עזאזמה,נגב 300
עזאזמה דרומית לרמת חובב,נגב 300
עזאזמה דרומית לשגב שלום,נגב 300
עזאזמה מזרחית לרמת חובב,נגב 300
רמת חובב,נגב 300
תראבין א צאנה שבט,נגב 300
א דהאבשה,נגב 299
אבו ג'ודה,נגב 299
אבו ג'ווייעד,נגב 299
אבו קרינאת,נגב 299
אבו קרינאת מערבית לכסיפה,נגב 299
אבו רביעה,נגב 299
אבו רביעה צפונית לכסיפה,נגב 299
אל ג'וויני,נגב 299
אל ג'נאמי,נגב 299
אל עביד,נגב 299
אל קורעאן ב,נגב 299
אל קרישי,נגב 299
אל קרעאן,נגב 299
אל קרעאן דרומית לערד,נגב 299
אל קשכר,נגב 299
ג'נאביב,נגב 299
דריג'את,נגב 299
זבארגה,נגב 299
כוחלה,נגב 299
כסיפה,נגב 299
מכחול,נגב 299
נצאצרה,נגב 299
ערד,נגב 299
ערערה בנגב,נגב 299
קבועה,נגב 299
קודייראת א צאנה,נגב 299
קשכר נבארי,נגב 299
אבו קוידר אל עפאוי דרומית לנבטים,נגב 297
אבו תלול,נגב 297
אל חמידי,נגב 297
אל עת'אמין,נגב 297
ביר אבו אל חמאם,נגב 297
נבטים,נגב 297
שגב שלום,נגב 297
א נבארי,נגב 296
א סייד ,נגב 296
אבו ג'אבר דרומית ממיתר,נגב 296
אל עטאונה,נגב 296
אעצם,נגב 296
חורה,נגב 296
כרמים,נגב 296
כרמית,נגב 296
מולדה,נגב 296
מיתר,נגב 296
סנסנה,נגב 296
עוקבי,נגב 296
אבו ג'אבר,נגב 287
אבו טראש,נגב 287
אבו כף אום בטין,נגב 287
אבו סריחאן,נגב 287
אבו עבדון,נגב 287
אבו עמרה,נגב 287
אבו עסא,נגב 287
אבו רוקייק,נגב 287
אל אסד,נגב 287
לקיה,נגב 287
עומר,נגב 287
תל שבע,נגב 287
ג'האלין,מעלה אדומים 200
מעלה אדומים,מעלה אדומים 200
עיזרייה,מעלה אדומים 200
קדר,מעלה אדומים 200
גבעת חביבה,מנשה 108
גן שמואל,מנשה 108
מאור,מנשה 108
מענית,מנשה 108
שדה יצחק,מנשה 108
שער מנשה,מנשה 108
תלמי אלעזר,מנשה 108
חדרה,מנשה 107
גן השומרון,מנשה 106
כפר פינס,מנשה 106
משמרות,מנשה 106
נווה אבות,מנשה 106
עין עירון,מנשה 106
עין שמר,מנשה 106
פרדס חנה כרכור,מנשה 106
אור עקיבא,מנשה 105
קיסריה,מנשה 105
שדות ים,מנשה 105
אביאל,מנשה 104
אלוני יצחק,מנשה 104
בית חנניה,מנשה 104
בנימינה גבעת עדה,מנשה 104
ג'סר א זרקא,מנשה 104
גבעת ניל''י,מנשה 104
כפר גליקסון,מנשה 104
מעגן מיכאל,מנשה 104
עמיקם,מנשה 104
רגבים,מנשה 104
אליקים,מנשה 103
ג'ועארה,מנשה 103
גלעד,מנשה 103
דליה,מנשה 103
הזורע,מנשה 103
יוקנעם,מנשה 103
יוקנעם עילית,מנשה 103
מגידו,מנשה 103
מדרך עוז,מנשה 103
משמר העמק,מנשה 103
עין העמק,מנשה 103
עין השופט,מנשה 103
רמות מנשה,מנשה 103
רמת השופט,מנשה 103
בת שלמה,מנשה 102
דור,מנשה 102
הבונים,מנשה 102
זכרון יעקב,מנשה 102
כרם מהר''ל,מנשה 102
מאיר שפיה,מנשה 102
מעיין צבי,מנשה 102
מרכז מיר''ב,מנשה 102
נחשולים,מנשה 102
עופר,מנשה 102
עין איילה,מנשה 102
פוריידיס,מנשה 102
צרופה,מנשה 102
בית אורן,כרמל 82
גבעת וולפסון,כרמל 82
דאלית אל כרמל,כרמל 82
עספיא,כרמל 82
בית צבי,כרמל 81
גבע כרמל,כרמל 81
ימין אורד,כרמל 81
מגדים,כרמל 81
נווה ים,כרמל 81
ניר עציון,כרמל 81
עין הוד,כרמל 81
עין חוד,כרמל 81
עין כרמל,כרמל 81
עתלית,כרמל 81
נשר,כרמל 80
א זעיים,ירושלים 194
אבו דיס,ירושלים 194
אל ולג'ה,ירושלים 194
ביר נבאלה,ירושלים 194
בית איכסא,ירושלים 194
בית חנינא,ירושלים 194
דיר כרמיזן,ירושלים 194
חיזמא,ירושלים 194
ירושלים,ירושלים 194
ירושלים,ירושלים 194
ענאתא,ירושלים 194
רמת רחל,ירושלים 194
אבנת,ים המלח 210
מצוקי דרגות,ים המלח 210
מצפה שלם,ים המלח 210
ים המלח בתי מלון,ים המלח 207 
מצדה,ים המלח 207 
נווה זוהר,ים המלח 207 
עין בוקק,ים המלח 207 
עין גדי,ים המלח 207 
א דיראת,יהודה 207
א טבקה,יהודה 207
א טוואני,יהודה 207
א ריחייה,יהודה 207
אדורה,יהודה 207
אימריש,יהודה 207
אל הג'רה,יהודה 207
אל חדב,יהודה 207
אל מאג'ור,יהודה 207
אל מראג'ם,יהודה 207
אל עלקה אל פוקא,יהודה 207
אל פוואר,יהודה 207
אל קוסור,יהודה 207
אפיניש,יהודה 207
בית עינון,יהודה 207
בית עמרה,יהודה 207
בני נעים,יהודה 207
ג'רון א לוז,יהודה 207
דהרייה,יהודה 207
דומא במרכז שומרון,יהודה 207
דורא,יהודה 207
דיר סאמת,יהודה 207
דיר ראזח,יהודה 207
הר עמשא,יהודה 207
ואדיח,יהודה 207
זיף,יהודה 207
ח'ירבת זיתא,יהודה 207
ח'ירבת כרמה,יהודה 207
ח'רסה,יהודה 207
ח'שם אל כרם,יהודה 207
חברון,יהודה 207
חגי,יהודה 207
טנא,יהודה 207
יטא יוטה,יהודה 207
כעאבנה,יהודה 207
כרזה,יהודה 207
כרמיל,יהודה 207
כרמל,יהודה 207
לב יתיר,יהודה 207
מג'ד,יהודה 207
מעון,יהודה 207
מעין,יהודה 207
מצדות יהודה,יהודה 207
נגוהות,יהודה 207
סובא,יהודה 207
סוסיה,יהודה 207
סימיא,יהודה 207
סמוע,יהודה 207
עבדה,יהודה 207
עווד,יהודה 207
עוזיז,יהודה 207
ענאב אל כביר,יהודה 207
עתניאל,יהודה 207
פוקיקיס,יהודה 207
פני חבר,יהודה 207
קוואעין,יהודה 207
קילקיס,יהודה 207
קרית ארבע,יהודה 207
ראבוד,יהודה 207
ראפאת ליד סמוע,יהודה 207
רוג'ם אום ח'יר,יהודה 207
רוקעה,יהודה 207
שוויכה בהר חברון,יהודה 207
שייח' אחמד אל עבד,יהודה 207
שמעה,יהודה 207
שני ליבנה,יהודה 207
תפוח,יהודה 207
תראמה,יהודה 207
א שויוח,יהודה 206
אל ערוב,יהודה 206
אלון שבות,יהודה 206
אלון שבות,יהודה 206
אלעזר,יהודה 206
אפרתה,יהודה 206
בית אומר,יהודה 206
בית כאחיל,יהודה 206
בית סכריא,יהודה 206
בית פג'אר,יהודה 206
ביתר עילית,יהודה 206
בת עין,יהודה 206
בתיר,יהודה 206
ג'אלא,יהודה 206
ג'בעה,יהודה 206
הר גילה,יהודה 206
ואדי פוכין,יהודה 206
ח'ירבת ספא,יהודה 206
חוסאן,יהודה 206
חלחול,יהודה 206
חסכה,יהודה 206
כוויזבא,יהודה 206
כפר עציון,יהודה 206
כרמי צור,יהודה 206
מגדל עוז,יהודה 206
מועסכר אל ערוב,יהודה 206
מראח אל בקר,יהודה 206
נווה דניאל,יהודה 206
נחאלין,יהודה 206
סוריף,יהודה 206
סיעיר,יהודה 206
עבדאללה איברהים,יהודה 206
ראש צורים,יהודה 206
א דיר במזרח הר חברון,יהודה 200
אבו נוג'ים,יהודה 200
אום א טלע,יהודה 200
אום סלמונה,יהודה 200
אום עסלה,יהודה 200
אל ח'דר,יהודה 200
אספר,יהודה 200
אספר,יהודה 200
ארטאס,יהודה 200
בד פלוח,יהודה 200
בווידיעה,יהודה 200
ביאדה בהר חברון,יהודה 200
בית רחאל,יהודה 200
בית תעמר,יהודה 200
ברד'עה,יהודה 200
ג'וב א רום,יהודה 200
ג'והזם,יהודה 200
ג'ורת א שמעה,יהודה 200
ד'הר חלת אל ג'אמיע,יהודה 200
דהיישה מחנה פליטים,יהודה 200
ואדי אל עראיס,יהודה 200
זעתרה,יהודה 200
ח'רזאן,יהודה 200
חוג'ילה,יהודה 200
חרמלה,יהודה 200
כפר אלדד,יהודה 200
מיניה,יהודה 200
מעלה עמוס,יהודה 200
מעסרה,יהודה 200
מצד שמעון,יהודה 200
מראח רבאח,יהודה 200
נוקדים,יהודה 200
עבדאללה איברהים,יהודה 200
עובידייה,יהודה 200
עילת עלי,יהודה 200
ערב א שמעה,יהודה 200
ראס סניסיל,יהודה 200
רפידא,יהודה 200
תוקוע,יהודה 200
תעמרה,יהודה 200
תקוע,יהודה 200
א דיר במערב הר חברון,יהודה 188
אום עלאס,יהודה 188
אל קילא,יהודה 188
בית אולא,יהודה 188
ח'ראס,יהודה 188
נובא,יהודה 188
תלם,יהודה 188
תרקומיא,יהודה 188
נמל חיפה,חיפה 78
החותרים,חיפה 75
חיפה,חיפה 75
טירת כרמל,חיפה 75
כפר גלים,חיפה 75
אבטין,הקריות 71
אושה,הקריות 71
אל ח'וואלד מערב,הקריות 71
אפק,הקריות 71
יגור,הקריות 71
כפר המכבי,הקריות 71
כפר הנוער הדתי,הקריות 71
כפר חסידים א',הקריות 71
כפר חסידים ב',הקריות 71
סרכיס,הקריות 71
קרית אתא,הקריות 71
רומיחאת,הקריות 71
רכסים,הקריות 71
רמת יוחנן,הקריות 71
אזור תעשייה נעמן,הקריות 70
כפר ביאליק,הקריות 70
קרית ביאליק,הקריות 70
קרית חיים,הקריות 70
קרית ים,הקריות 70
קרית מוצקין,הקריות 70
קרית שמואל,הקריות 70
אזור,דן 162
בת ים,דן 162
חולון,דן 162
מקווה ישראל,דן 162
אור יהודה,דן 161
גני תקווה,דן 161
יהוד מונוסון,דן 161
כפר אז''ר,דן 161
מעש,דן 161
נווה אפעל,דן 161
סביון,דן 161
קרית אונו,דן 161
רמת אפעל,דן 161
בני ברק,דן 160
גבעת שמואל,דן 160
גבעתיים,דן 160
חוות שלם,דן 160
פתח תקווה,דן 160
רמת גן,דן 160
תל אביב יפו,דן 157
גליל ים,דן 155
הכפר הירוק,דן 155
הרצליה,דן 155
כפר שמריהו,דן 155
רמת השרון,דן 155
אבו דיאב,גליל תחתון 63  
אום א סח'אלי,גליל תחתון 63  
אחיהוד,גליל תחתון 63  
אלון הגליל,גליל תחתון 63  
אעבלין,גליל תחתון 63  
אתגר,גליל תחתון 63  
ביר אל מכסור,גליל תחתון 63  
דמיידה,גליל תחתון 63  
הרדוף,גליל תחתון 63  
ח'ואלד,גליל תחתון 63  
חנתון,גליל תחתון 63  
טמרה,גליל תחתון 63  
יבור,גליל תחתון 63  
יובלים,גליל תחתון 63  
יודפת,גליל תחתון 63  
יסעור,גליל תחתון 63  
יעד,גליל תחתון 63  
כאבול,גליל תחתון 63  
כאוכב אבו אל היגא,גליל תחתון 63  
כפר מנדא,גליל תחתון 63  
מורשת,גליל תחתון 63  
מנוף,גליל תחתון 63  
מצפה אבי''ב,גליל תחתון 63  
מרכז אזורי מישגב,גליל תחתון 63  
נופית,גליל תחתון 63  
סואעד,גליל תחתון 63  
עדי,גליל תחתון 63  
עצמון שגב,גליל תחתון 63  
ערב אל גנאדי,גליל תחתון 63  
ערב אל נעים,גליל תחתון 63  
ערב אל סגיראת,גליל תחתון 63  
ערב אל סמניה,גליל תחתון 63  
קורנית,גליל תחתון 63  
ראס עלי,גליל תחתון 63  
רקפת,גליל תחתון 63  
שורשים,גליל תחתון 63  
שכניה,גליל תחתון 63  
שעב,גליל תחתון 63  
שפרעם,גליל תחתון 63  
בית רימון,גליל תחתון 61
עוזייר,גליל תחתון 61
רומאנה,גליל תחתון 61
רומת היב,גליל תחתון 61
אבטליון,גליל תחתון 60
אשבל,גליל תחתון 60
אשחר,גליל תחתון 60
דייר חנא,גליל תחתון 60
הררית,גליל תחתון 60
חוג'ייראת,גליל תחתון 60
חוסנייה,גליל תחתון 60
חזון,גליל תחתון 60
יחד,גליל תחתון 60
כמאנה,גליל תחתון 60
כמון,גליל תחתון 60
לוטם,גליל תחתון 60
מורן,גליל תחתון 60
מכמנים,גליל תחתון 60
סח'נין,גליל תחתון 60
סלמה,גליל תחתון 60
עראבה,גליל תחתון 60
ערב אזונר,גליל תחתון 60
צביה,גליל תחתון 60
ראס אל עין,גליל תחתון 60
תרדיון,גליל תחתון 60
בועיינה נוג'יידאת,גליל תחתון 57
טפחות,גליל תחתון 57
כלנית,גליל תחתון 57
כפר חנניה,גליל תחתון 57
מגאר,גליל תחתון 57
מסד,גליל תחתון 57
מצפה נטופה,גליל תחתון 57
עיילבון,גליל תחתון 57
עינבר,גליל תחתון 57
קדרים,גליל תחתון 57
טבריה,גליל תחתון 56  
מצפה,גליל תחתון 56  
ארבל,גליל תחתון 55  
גינוסר,גליל תחתון 55  
חוקוק,גליל תחתון 55  
חמאם,גליל תחתון 55  
כחל,גליל תחתון 55  
כפר זיתים,גליל תחתון 55  
כפר חיטים,גליל תחתון 55  
לבנים,גליל תחתון 55  
מגדל,גליל תחתון 55  
רביד,גליל תחתון 55  
אליפלט,גליל עליון 50
אלמגור,גליל עליון 50
אמנון,גליל עליון 50
ורד הגליל,גליל עליון 50
חצור הגלילית,גליל עליון 50
טובא זנגריה,גליל עליון 50
כורזים,גליל עליון 50
כפר הנשיא,גליל עליון 50
כפר נחום,גליל עליון 50
כרי דשא,גליל עליון 50
כרכום,גליל עליון 50
מחניים,גליל עליון 50
עמיעד,גליל עליון 50
ראש פינה,גליל עליון 50
ביריה,גליל עליון 49
צפת,גליל עליון 49
איילת השחר,גליל עליון 47
גדות,גליל עליון 47
חולתה,גליל עליון 47
יסוד המעלה,גליל עליון 47
משמר הירדן,גליל עליון 47
עמוקה,גליל עליון 47
שדה אליעזר,גליל עליון 47
ספסופה,גליל עליון 46
אור הגנוז,גליל עליון 44
אמירים,גליל עליון 44
בר יוחאי,גליל עליון 44
חמדת ימים,גליל עליון 44
כפר שמאי,גליל עליון 44
מירון,גליל עליון 44
מרכז אזורי מרום הגליל,גליל עליון 44
עין כמונים,גליל עליון 44
פרוד,גליל עליון 44
קדיתא,גליל עליון 44
שפר,גליל עליון 44
בית ג'ן,גליל עליון 43
חלוץ,גליל עליון 43
חרשים,גליל עליון 43
ביענה,גליל עליון 42
גילון,גליל עליון 42
דייר אל אסד,גליל עליון 42
כרמיאל,גליל עליון 42
לבון,גליל עליון 42
מג'ד אל כרום,גליל עליון 42
נחף,גליל עליון 42
סאג'ור,גליל עליון 42
עין אל אסד,גליל עליון 42
צורית,גליל עליון 42
קובסי,גליל עליון 42
ראמה,גליל עליון 42
שגור,גליל עליון 42
שזור,גליל עליון 42
יאנוח ג'ת,גליל עליון 41
כיסרא סומיע,גליל עליון 41
מגדל תפן,גליל עליון 41
כישור,גליל עליון 40
פלך,גליל עליון 40
תובל,גליל עליון 40
אשרת,גליל עליון 38
ג'וליס,גליל עליון 38
גיתה,גליל עליון 38
טל אל,גליל עליון 38
ירכא,גליל עליון 38
כליל,גליל עליון 38
כפר יאסיף,גליל עליון 38
לפידות,גליל עליון 38
עמקה,גליל עליון 38
בוסתן הגליל,גליל עליון 37
בית העמק,גליל עליון 37
ג'דידה מכר,גליל עליון 37
כפר מסריק,גליל עליון 37
נס עמים,גליל עליון 37
נתיב השיירה,גליל עליון 37
עין המפרץ,גליל עליון 37
עכו,גליל עליון 37
שייח' דנון,גליל עליון 37
שמרת,גליל עליון 37
לוחמי הגיטאות,גליל עליון 35
מזרעה,גליל עליון 35
רגבה,גליל עליון 35
אורטל,גולן 3
אלוני הבשן,גולן 3
יונתן,גולן 3
מרום גולן,גולן 3
עין זיוון,גולן 3
קשת,גולן 3
אבני איתן,גולן 2
אזור תעשייה בני יהודה,גולן 2
אלי עד,גולן 2
אפיק,גולן 2
בני יהודה,גולן 2
גבעת יואב,גולן 2
גשור,גולן 2
חמת גדר,גולן 2
חספין,גולן 2
כפר חרוב,גולן 2
מבוא חמה,גולן 2
מיצר,גולן 2
נאות גולן,גולן 2
נוב,גולן 2
נטור,גולן 2
רמת מגשימים,גולן 2
אודם,גולן 1
אל רום,גולן 1
בוקעתא,גולן 1
מג'דל שמס,גולן 1
מסעדה,גולן 1
נווה אטי''ב,גולן 1
נמרוד,גולן 1
עין קנייא,גולן 1
אזור תעשיות צבאים,בקעת בית שאן 128
אחוזת שושנה,בקעת בית שאן 128
ביכורה,בקעת בית שאן 128
בית אלפא,בקעת בית שאן 128
בית השיטה,בקעת בית שאן 128
בית יוסף,בקעת בית שאן 128
בית שאן,בקעת בית שאן 128
גשר,בקעת בית שאן 128
חוות דושן,בקעת בית שאן 128
חוות עדן,בקעת בית שאן 128
חוות שפעה,בקעת בית שאן 128
חמדיה,בקעת בית שאן 128
חפצי בה,בקעת בית שאן 128
טירת צבי,בקעת בית שאן 128
ירדנה,בקעת בית שאן 128
כפר רופין,בקעת בית שאן 128
מולדת,בקעת בית שאן 128
מירב,בקעת בית שאן 128
מלכישוע,בקעת בית שאן 128
מסילות,בקעת בית שאן 128
מעוז חיים,בקעת בית שאן 128
מעלה גלבוע,בקעת בית שאן 128
מפעלי שאן,בקעת בית שאן 128
נווה אור,בקעת בית שאן 128
נווה איתן,בקעת בית שאן 128
ניר דוד,בקעת בית שאן 128
עין הנצי''ב,בקעת בית שאן 128
רוויה,בקעת בית שאן 128
רחוב,בקעת בית שאן 128
רשפים,בקעת בית שאן 128
שדה אליהו,בקעת בית שאן 128
שדה נחום,בקעת בית שאן 128
שדי תרומות,בקעת בית שאן 128
שלוחות,בקעת בית שאן 128
תל תאומים,בקעת בית שאן 128
אלון,בקעה 133
אלמוג,בקעה 133
בית הערבה,בקעה 133
גבע בנימין,בקעה 133
ורד יריחו,בקעה 133
יריחו,בקעה 133
כוכב השחר,בקעה 133
כפר אדומים,בקעה 133
מבואות יריחו,בקעה 133
מעלה מכמש,בקעה 133
מצפה יריחו,בקעה 133
נועימה,בקעה 133
נועימה מחנה פליטים,בקעה 133
נח''ל אלישע,בקעה 133
עין א סולטאן מחנה פליטים,בקעה 133
עלמון,בקעה 133
עקאבת ג'בר מחנה פליטים,בקעה 133
קליה,בקעה 133
רימונים,בקעה 133
גלגל,בקעה 132
דומא,בקעה 132
ייט''ב,בקעה 132
מוע'ייר,בקעה 132
מעלה אפרים,בקעה 132
נירן,בקעה 132
נעמי,בקעה 132
נתיב הגדוד,בקעה 132
עוג'א אתחתא,בקעה 132
עין מע'ר,בקעה 132
פסאיל,בקעה 132
פצאל,בקעה 132
תומר,בקעה 132
גיתית,בקעה 131
יפית,בקעה 131
משואה,בקעה 131
שלומציון,בקעה 131
ארגמן,בקעה 130
בקעות,בקעה 130
ברדלה,בקעה 130
זובידאת,בקעה 130
ח'לת אל פולה,בקעה 130
חמדת,בקעה 130
חמרה,בקעה 130
מחולה,בקעה 130
מכורה,בקעה 130
מרג' נעג'ה,בקעה 130
משכיות,בקעה 130
עאטוף,בקעה 130
פארעה אל ג'פתלכ,בקעה 130
פרוש בית דג'ן,בקעה 130
רועי,בקעה 130
רותם,בקעה 130
שדמות מחולה,בקעה 130
תל א שמסיה,בקעה 130
תל אל בידה,בקעה 130
אבן ספיר,בית שמש 191
אורה,בית שמש 191
מבוא ביתר,בית שמש 191
עמינדב,בית שמש 191
צור הדסה,בית שמש 191
בידו,בית שמש 190
בית זית,בית שמש 190
בית נקופה,בית שמש 190
בית סוריכ,בית שמש 190
הר אדר,בית שמש 190
מבשרת ציון,בית שמש 190
מוצא עילית,בית שמש 190
מעלה החמישה,בית שמש 190
צובה,בית שמש 190
קרית ענבים,בית שמש 190
אבו גוש,בית שמש 189
איתנים,בית שמש 189
בית מאיר,בית שמש 189
בר גיורא,בית שמש 189
גבעת יערים,בית שמש 189
יד השמונה,בית שמש 189
ידידה,בית שמש 189
כסלון,בית שמש 189
מטע,בית שמש 189
נווה אילן,בית שמש 189
נטף,בית שמש 189
נס הרים,בית שמש 189
עין נקובא,בית שמש 189
עין ראפה,בית שמש 189
קרית יערים,בית שמש 189
רמת רזיאל,בית שמש 189
שואבה,בית שמש 189
שורש,בית שמש 189
אביעזר,בית שמש 188
אדרת,בית שמש 188
אשתאול,בית שמש 188
בית ג'מאל,בית שמש 188
בית שמש,בית שמש 188
בקוע,בית שמש 188
גבעות עדן,בית שמש 188
גבעת שמש,בית שמש 188
גיזו,בית שמש 188
דייר ראפאת,בית שמש 188
הראל,בית שמש 188
זנוח,בית שמש 188
טל שחר,בית שמש 188
ישעי,בית שמש 188
כפר אוריה,בית שמש 188
מחסיה,בית שמש 188
מנזר לטרון,בית שמש 188
מסילת ציון,בית שמש 188
נווה מיכאל,בית שמש 188
נווה שלום,בית שמש 188
נחם,בית שמש 188
נחשון,בית שמש 188
נתיב הל''ה,בית שמש 188
פארק צרעה,בית שמש 188
צלפון,בית שמש 188
צרעה,בית שמש 188
רוגלית,בית שמש 188
תעוז,בית שמש 188
תרום,בית שמש 188
באר שבע,באר שבע 292
מסעודין אל עזאזמה,באר שבע 292
חצרים,באר שבע 291
בטחה,באר שבע 289
גילת,באר שבע 289
תפרח,באר שבע 289
אופקים,באר שבע 288
אופקים,באר שבע 288
מסלול,באר שבע 288
פדויים,באר שבע 288
רנן,באר שבע 288
א זיאדנה דרומית לרהט,באר שבע 286
א זיאדנה צפונית לרהט,באר שבע 286
אל הייל,באר שבע 286
אל חוקוק,באר שבע 286
אל עתאיקה,באר שבע 286
בית קמה,באר שבע 286
גבעות בר,באר שבע 286
דבירה,באר שבע 286
הוזייל,באר שבע 286
כפר נוער עדנים,באר שבע 286
להב,באר שבע 286
להבים,באר שבע 286
מפעלי אבשלום,באר שבע 286
משמר הנגב,באר שבע 286
רהט,באר שבע 286
שובל,באר שבע 286
תראבין א צאנה,באר שבע 286
אל בירה בהר חברון,באר שבע 285
אמציה,באר שבע 285
אשכולות,באר שבע 285
בורג',באר שבע 285
בית א רוש אל פוקא,באר שבע 285
בית מירסים,באר שבע 285
בני דקלים,באר שבע 285
כרם עמי,באר שבע 285
כרמי קטיף,באר שבע 285
נטע,באר שבע 285
שומריה,באר שבע 285
שקף,באר שבע 285
גבולות,אשקלון 257
צאלים,אשקלון 257
אורים,אשקלון 256
פטיש,אשקלון 256
ברוש,אשקלון 255
גבעולים,אשקלון 255
מלילות,אשקלון 255
מעגלים,אשקלון 255
שיבולים,אשקלון 255
שרשרת,אשקלון 255
תאשור,אשקלון 255
תדהר,אשקלון 255
בית הגדי,אשקלון 254
נתיבות,אשקלון 254
קרית חינוך שדות נגב,אשקלון 254
אשבול,אשקלון 253
זרועה,אשקלון 253
יושיביה,אשקלון 253
מבועים,אשקלון 253
ניר משה,אשקלון 253
ניר עקיבא,אשקלון 253
פעמי תש''ז,אשקלון 253
קלחים,אשקלון 253
שבי דרום,אשקלון 253
שדה צבי,אשקלון 253
תלמי ביל''ו,אשקלון 253
דורות,אשקלון 252
חוות שיקמים,אשקלון 252
רוחמה,אשקלון 252
ברור חיל,אשקלון 251
חלץ,אשקלון 251
שדה דוד,אשקלון 251
תלמים,אשקלון 251
בית שיקמה,אשקלון 250
בת הדר,אשקלון 250
גיאה,אשקלון 250
מבקיעים,אשקלון 250
תלמי יפה,אשקלון 250
זוהר,אשקלון 249
יד נתן,אשקלון 249
כוכב מיכאל,אשקלון 249
נגבה,אשקלון 249
נהורה,אשקלון 249
נוגה,אשקלון 249
ניר ח''ן,אשקלון 249
עוצם,אשקלון 249
שדה יואב,אשקלון 249
שחר,אשקלון 249
ברכיה,אשקלון 248
הודיה,אשקלון 248
כפר סילבר,אשקלון 248
משען,אשקלון 248
ניר ישראל,אשקלון 248
א.ת אשקלון,אשקלון 247
אשקלון,אשקלון 246
באר גנים,אשקלון 246
ניצן,אשקלון 245
ניצן ב',אשקלון 245
ניצנים,אשקלון 245
בני נצרים,אשקלון 238
נווה,אשקלון 238
שלומית,אשקלון 238
אוהד,אשקלון 234
צוחר,אשקלון 234
שדה ניצן,אשקלון 234
תלמי אליהו,אשקלון 234
בית גוברין,אשדוד 282
בית ניר,אשדוד 282
גלאון,אשדוד 282
לכיש,אשדוד 282
אבן שמואל,אשדוד 281
אחוזם,אשדוד 281
איתן,אשדוד 281
גת,אשדוד 281
מבחור,אשדוד 281
נועם,אשדוד 281
עוזה,אשדוד 281
קרית גת,אשדוד 281
שדה משה,אשדוד 281
שלווה,אשדוד 281
אלומה,אשדוד 280
ורדון,אשדוד 280
זבדיאל,אשדוד 280
זרחיה,אשדוד 280
מנוחה,אשדוד 280
נחלה,אשדוד 280
ניר בנים,אשדוד 280
סגולה,אשדוד 280
קדמה,אשדוד 280
קוממיות,אשדוד 280
רווחה,אשדוד 280
גבעת ישעיהו,אשדוד 278
גפן,אשדוד 278
זכריה,אשדוד 278
כפר זוהרים,אשדוד 278
לוזית,אשדוד 278
נחושה,אשדוד 278
עגור,אשדוד 278
צפרירים,אשדוד 278
שדות מיכה,אשדוד 278
שריגים,אשדוד 278
תירוש,אשדוד 278
מרכז שפירא,אשדוד 276
משואות יצחק,אשדוד 276
עין צורים,אשדוד 276
שפיר,אשדוד 276
אביגדור,אשדוד 275
אורות,אשדוד 275
אחווה,אשדוד 275
אל עזי,אשדוד 275
באר טוביה,אשדוד 275
ינון,אשדוד 275
כפר אחים,אשדוד 275
כפר הרי''ף,אשדוד 275
כפר ורבורג,אשדוד 275
כפר מנחם,אשדוד 275
ערוגות,אשדוד 275
קרית מלאכי,אשדוד 275
תימורים,אשדוד 275
תלמי יחיאל,אשדוד 275
ביצרון,אשדוד 273
בני עי''ש,אשדוד 273
גן הדרום,אשדוד 273
גן יבנה,אשדוד 273
חצב,אשדוד 273
חצור אשדוד,אשדוד 273
כנות,אשדוד 273
נווה מבטח,אשדוד 273
אמונים,אשדוד 272
בית עזרא,אשדוד 272
גבעתי,אשדוד 272
עזר,אשדוד 272
עזריקם,אשדוד 272
שדה עוזיהו,אשדוד 272
שתולים,אשדוד 272
אשדוד,אשדוד 271
בני דרום,אשדוד 271
נווה הרצוג,אשדוד 271
ניר גלים,אשדוד 271
עד הלום,אשדוד 271
בית אלעזרי,אשדוד 268
בית חלקיה,אשדוד 268
בני ראם,אשדוד 268
ברורים,אשדוד 268
גדרה,אשדוד 268
גני טל,אשדוד 268
חפץ חיים,אשדוד 268
יד בנימין,אשדוד 268
קדרון,אשדוד 268
רבדים,אשדוד 268
בית גמליאל,אשדוד 267
בית רבן,אשדוד 267
בן זכאי,אשדוד 267
בניה,אשדוד 267
כפר אביב,אשדוד 267
כפר מרדכי,אשדוד 267
כרם יבנה,אשדוד 267
מישר,אשדוד 267
משגב דב,אשדוד 267
עשרת,אשדוד 267
צופיה,אשדוד 267
קבוצת יבנה,אשדוד 267
שדמה,אשדוד 267
גאליה,אשדוד 266
יבנה,אשדוד 266
כפר הנגיד,אשדוד 266
אילות,אילת 311
אילת,אילת 311
